<?xml version="1.0" encoding="UTF-8" standalone="no"?>
<svg
   width="20.006069"
   height="20.49"
   viewBox="0 0 20.006069 20.49"
   focusable="false"
   version="1.1"
   id="svg1"
   xmlns="http://www.w3.org/2000/svg"
   xmlns:svg="http://www.w3.org/2000/svg">
  <defs
     id="defs1" />
  <path
     d="M 11.851211,20.49 H 8.1512109 c -0.74,0 -1.36,-0.54 -1.45,-1.27 l -0.27,-1.89 c -0.27,-0.14 -0.53,-0.29 -0.79,-0.46 l -1.8,0.72 c -0.7,0.26 -1.47,-0.03 -1.81,-0.65 L 0.20121088,13.77 c -0.35,-0.66 -0.2,-1.44 0.36,-1.88 L 2.0912109,10.7 c -0.01,-0.15 -0.02,-0.3 -0.02,-0.46 0,-0.15 0.01,-0.31 0.02,-0.46 L 0.57121088,8.59 c -0.59,-0.45 -0.74,-1.26 -0.37,-1.88 L 2.0512109,3.52 c 0.34,-0.62 1.11,-0.9 1.79,-0.63 l 1.81,0.73 c 0.26,-0.17 0.52,-0.32 0.78,-0.46 l 0.27,-1.91 c 0.09,-0.7 0.71,-1.25 1.44,-1.25 h 3.7000001 c 0.74,0 1.36,0.54 1.45,1.27 l 0.27,1.89 c 0.27,0.14 0.53,0.29 0.79,0.46 l 1.8,-0.72 c 0.71,-0.26 1.48,0.03 1.82,0.65 l 1.84,3.18 c 0.36,0.66 0.2,1.44 -0.36,1.88 l -1.52,1.19 c 0.01,0.15 0.02,0.3 0.02,0.46 0,0.16 -0.01,0.31 -0.02,0.46 l 1.52,1.19 c 0.56,0.45 0.72,1.23 0.37,1.86 l -1.86,3.22 c -0.34,0.62 -1.11,0.9 -1.8,0.63 l -1.8,-0.72 c -0.26,0.17 -0.52,0.32 -0.78,0.46 l -0.27,1.91 c -0.1,0.68 -0.72,1.22 -1.46,1.22 z m -3.2300001,-2 h 2.7600001 l 0.37,-2.55 0.53,-0.22 c 0.44,-0.18 0.88,-0.44 1.34,-0.78 l 0.45,-0.34 2.38,0.96 1.38,-2.4 -2.03,-1.58 0.07,-0.56 c 0.03,-0.26 0.06,-0.51 0.06,-0.78 0,-0.27 -0.03,-0.53 -0.06,-0.78 l -0.07,-0.56 2.03,-1.58 -1.39,-2.4 -2.39,0.96 -0.45,-0.35 c -0.42,-0.32 -0.87,-0.58 -1.33,-0.77 l -0.52,-0.22 -0.37,-2.55 H 8.6212109 l -0.37,2.55 -0.53,0.21 c -0.44,0.19 -0.88,0.44 -1.34,0.79 l -0.45,0.33 -2.38,-0.95 -1.39,2.39 2.03,1.58 -0.07,0.56 a 7,7 0 0 0 -0.06,0.79 c 0,0.26 0.02,0.53 0.06,0.78 l 0.07,0.56 -2.03,1.58 1.38,2.4 2.39,-0.96 0.45,0.35 c 0.43,0.33 0.86,0.58 1.33,0.77 l 0.53,0.22 z"
     id="path1" />
  <circle
     cx="10.001211"
     cy="10.24"
     r="3.5"
     id="circle1" />
</svg>
